{
  "pages": [
    {
      "id": "OnePage",
      "isDefault": true
    },
    {
      "id": "SecondPage",
      "isDefault": false
    }
  ],
  "viewMode": false,
  "appIsExample": false,
  "unreadCommentThreads": 0,
  "color": "#E4D8CC",
  "icon": "bus",
  "evaluationVersion": 2,
  "applicationVersion": 2,
  "isManualUpdate": false,
  "deleted": false
}