{
  "unpublishedPage": {
    "name": "SecondPage",
    "slug": "secondpage",
    "layouts": [
      {
        "viewMode": false,
        "dsl": {
          "widgetName": "MainContainer",
          "backgroundColor": "none",
          "rightColumn": 1224,
          "snapColumns": 64,
          "detachFromLayout": true,
          "widgetId": "0",
          "topRow": 0,
          "bottomRow": 910,
          "containerStyle": "none",
          "snapRows": 91,
          "parentRowSpace": 1,
          "type": "CANVAS_WIDGET",
          "canExtend": true,
          "version": 59,
          "minHeight": 920,
          "parentColumnSpace": 1,
          "dynamicBindingPathList": [],
          "leftColumn": 0,
          "children": []
        },
        "layoutOnLoadActions": [],
        "validOnPageLoadActions": true,
        "id": "SecondPage",
        "deleted": false,
        "policies": [],
        "userPermissions": []
      }
    ],
    "userPermissions": [],
    "policies": [],
    "isHidden": false
  },
  "deleted": false,
  "gitSyncId": "62ac1a355f88750016a6d35f_62ac1b3f46772808fb34efe3"
}