{
  "unpublishedCollection": {
    "name": "third",
    "pageId": "OnePage",
    "pluginId": "js-plugin",
    "pluginType": "JS",
    "actions": [],
    "archivedActions": [],
    "body": "export default {\n\tmyVar1: [],\n\tmyVar2: {},\n\tmyFun1: () => {\n\t\t//write code here\n\t},\n\tmyFun2: async () => {\n\t\t//use async-await or promises\n\t}\n}",
    "variables": [
      {
        "name": "myVar1",
        "value": []
      },
      {
        "name": "myVar2",
        "value": {}
      }
    ]
  },
  "id": "OnePage_third",
  "deleted": false,
  "gitSyncId": "62ac1a355f88750016a6d35f_62ac354a19c549054c452301"
}